Impact of metformin on diabetes-related readmission
…
Median [Min, Max]
16.0 [2.00, 81.0]
16.0 [1.00, 70.0]
15.0 [1.00, 79.0]
15.0 [1.00, 81.0]

Results

Model 1 Summary: Readmission vs.No Readmission

## # A tibble: 22 x 5
##    term       estimate std.error statistic  p.value
##    <chr>         <dbl>     <dbl>     <dbl>    <dbl>
##  1 medication   -0.358    0.0408   -8.76   1.97e-18
##  2 race2         0.630    1.04      0.606  5.44e- 1
##  3 race3        -0.372    0.774    -0.480  6.31e- 1
##  4 race4        -0.343    0.868    -0.395  6.93e- 1
##  5 race5        -0.254    0.996    -0.255  7.99e- 1
##  6 diagnosis2    1.83     1.60      1.14   2.53e- 1
##  7 diagnosis3   16.6   1274.        0.0131 9.90e- 1
##  8 diagnosis4   16.4   1452.        0.0113 9.91e- 1
##  9 diagnosis5   -0.385    1.33     -0.290  7.72e- 1
## 10 diagnosis6    0.590    2.07      0.285  7.76e- 1
## #  with 12 more rows

Model 2 Summary: Readmission <=30 vs.>30 days

## # A tibble: 22 x 5
##    term       estimate std.error statistic p.value
##    <chr>         <dbl>     <dbl>     <dbl>   <dbl>
##  1 medication   -0.137    0.0773  -1.78     0.0755
##  2 race2        -2.33     1.44    -1.62     0.105 
##  3 race3        -2.20     1.67    -1.32     0.186 
##  4 race4         0.179    1.63     0.110    0.912 
##  5 race5        -0.734    0.884   -0.830    0.407 
##  6 diagnosis2  -16.9   3574.      -0.00472  0.996 
##  7 diagnosis3   -1.16     2.57    -0.453    0.650 
##  8 diagnosis4    1.49     2.17     0.689    0.491 
##  9 diagnosis5    2.68     2.30     1.16     0.244 
## 10 diagnosis6   17.3   3784.       0.00458  0.996 
## #  with 12 more rows
…
